{
    "name": "todos",
    "description": "A custom todo list.",
    "browserSyncProxy" : "http://todos.dev",
    "css": {
        "file" : "style.scss",
        "src": [
            "scss/**/*.scss"
        ],
        "dest": "assets/css",
        "includePaths": []
    },
    "js": {
        "file" : "app.js",
        "src": [
            "node_modules/angular/angular.js",
            "node_modules/angular-route/angular-route.js",
            "node_modules/angular-resource/angular-resource.js",
            "js/**/*.js"
        ],
        "dest": "assets/js"
    }
}
